Lucrare3/IF_ID.sim/sim_1/behav/xsim/simulate.log
Time resolution is 1 ps
Values after 4-to-1 MUX: MUX_OUT_1: xxxxxxxx, MUX_OUT_2: xxxxxxxx
Immediate value and ALUSrc: IMM_EX: 00000000, ALUSrc_EX: 0
2-to-1 MUX Output: MUX_OUT_3: xxxxxxxx
Initial Values: REG_DATA1_EX: 00000000, REG_DATA2_EX: 00000000, ALU_DATA_WB: 00000000, ALU_OUT_MEM: 00000000
ALU Operation Results: Control Output: 2, MUX_OUT_1: xxxxxxxx, MUX_OUT_3: xxxxxxxxxxxxxxxxxxxxxxxxxxxxxxxx, ALU_OUT_EX: xxxxxxxx
Values after 4-to-1 MUX: MUX_OUT_1: 00000000, MUX_OUT_2: 00000000
Immediate value and ALUSrc: IMM_EX: 00000000, ALUSrc_EX: 0
2-to-1 MUX Output: MUX_OUT_3: 00000000
ALU Operation Results: Control Output: 2, MUX_OUT_1: 00000000, MUX_OUT_3: 00000000000000000000000000000000, ALU_OUT_EX: xxxxxxxx
ALU Operation Results: Control Output: 2, MUX_OUT_1: 00000000, MUX_OUT_3: 00000000000000000000000000000000, ALU_OUT_EX: 00000000
Initial Values: REG_DATA1_EX: 00000001, REG_DATA2_EX: 00000000, ALU_DATA_WB: 00000000, ALU_OUT_MEM: 00000000
Values after 4-to-1 MUX: MUX_OUT_1: 00000001, MUX_OUT_2: 00000000
Immediate value and ALUSrc: IMM_EX: 00000000, ALUSrc_EX: 0
2-to-1 MUX Output: MUX_OUT_3: 00000000
ALU Operation Results: Control Output: 2, MUX_OUT_1: 00000001, MUX_OUT_3: 00000000000000000000000000000000, ALU_OUT_EX: 00000000
ALU Operation Results: Control Output: 2, MUX_OUT_1: 00000001, MUX_OUT_3: 00000000000000000000000000000000, ALU_OUT_EX: 00000001
Values after 4-to-1 MUX: MUX_OUT_1: 00000001, MUX_OUT_2: 00000000
Immediate value and ALUSrc: IMM_EX: 00000001, ALUSrc_EX: 1
2-to-1 MUX Output: MUX_OUT_3: 00000001
Initial Values: REG_DATA1_EX: 00000001, REG_DATA2_EX: 00000001, ALU_DATA_WB: 00000000, ALU_OUT_MEM: 00000001
ALU Operation Results: Control Output: 2, MUX_OUT_1: 00000001, MUX_OUT_3: 00000000000000000000000000000001, ALU_OUT_EX: 00000001
Values after 4-to-1 MUX: MUX_OUT_1: 00000001, MUX_OUT_2: 00000001
Immediate value and ALUSrc: IMM_EX: 00000001, ALUSrc_EX: 1
2-to-1 MUX Output: MUX_OUT_3: 00000001
ALU Operation Results: Control Output: 2, MUX_OUT_1: 00000001, MUX_OUT_3: 00000000000000000000000000000001, ALU_OUT_EX: 00000002
Values after 4-to-1 MUX: MUX_OUT_1: 00000001, MUX_OUT_2: 00000001
Immediate value and ALUSrc: IMM_EX: 00000000, ALUSrc_EX: 0
2-to-1 MUX Output: MUX_OUT_3: 00000001
Initial Values: REG_DATA1_EX: 00000001, REG_DATA2_EX: 00000002, ALU_DATA_WB: 00000001, ALU_OUT_MEM: 00000002
Values after 4-to-1 MUX: MUX_OUT_1: 00000001, MUX_OUT_2: 00000002
Immediate value and ALUSrc: IMM_EX: 00000000, ALUSrc_EX: 0
2-to-1 MUX Output: MUX_OUT_3: 00000002
ALU Operation Results: Control Output: 0, MUX_OUT_1: 00000001, MUX_OUT_3: 00000000000000000000000000000010, ALU_OUT_EX: 00000002
ALU Operation Results: Control Output: 0, MUX_OUT_1: 00000002, MUX_OUT_3: 00000000000000000000000000000001, ALU_OUT_EX: 00000000
Values after 4-to-1 MUX: MUX_OUT_1: 00000002, MUX_OUT_2: 00000001
Immediate value and ALUSrc: IMM_EX: 00000000, ALUSrc_EX: 0
2-to-1 MUX Output: MUX_OUT_3: 00000001
Values after 4-to-1 MUX: MUX_OUT_1: 00000002, MUX_OUT_2: 00000001
Immediate value and ALUSrc: IMM_EX: 00000001, ALUSrc_EX: 1
2-to-1 MUX Output: MUX_OUT_3: 00000001
Initial Values: REG_DATA1_EX: 00000001, REG_DATA2_EX: 00000001, ALU_DATA_WB: 00000002, ALU_OUT_MEM: 00000000
Values after 4-to-1 MUX: MUX_OUT_1: 00000000, MUX_OUT_2: 00000002
Immediate value and ALUSrc: IMM_EX: 00000001, ALUSrc_EX: 1
2-to-1 MUX Output: MUX_OUT_3: 00000001
ALU Operation Results: Control Output: 1, MUX_OUT_1: 00000000, MUX_OUT_3: 00000000000000000000000000000001, ALU_OUT_EX: 00000000
ALU Operation Results: Control Output: 1, MUX_OUT_1: 00000002, MUX_OUT_3: 00000000000000000000000000000001, ALU_OUT_EX: 00000001
Values after 4-to-1 MUX: MUX_OUT_1: 00000002, MUX_OUT_2: 00000001
Immediate value and ALUSrc: IMM_EX: 00000001, ALUSrc_EX: 1
2-to-1 MUX Output: MUX_OUT_3: 00000001
ALU Operation Results: Control Output: 1, MUX_OUT_1: 00000002, MUX_OUT_3: 00000000000000000000000000000001, ALU_OUT_EX: 00000003
Values after 4-to-1 MUX: MUX_OUT_1: 00000002, MUX_OUT_2: 00000001
Immediate value and ALUSrc: IMM_EX: 00000004, ALUSrc_EX: 1
2-to-1 MUX Output: MUX_OUT_3: 00000004
Initial Values: REG_DATA1_EX: 00000005, REG_DATA2_EX: 00000004, ALU_DATA_WB: 00000000, ALU_OUT_MEM: 00000003
ALU Operation Results: Control Output: 1, MUX_OUT_1: 00000002, MUX_OUT_3: 00000000000000000000000000000100, ALU_OUT_EX: 00000003
Values after 4-to-1 MUX: MUX_OUT_1: 00000000, MUX_OUT_2: 00000004
Immediate value and ALUSrc: IMM_EX: 00000004, ALUSrc_EX: 1
2-to-1 MUX Output: MUX_OUT_3: 00000004
ALU Operation Results: Control Output: 2, MUX_OUT_1: 00000000, MUX_OUT_3: 00000000000000000000000000000100, ALU_OUT_EX: 00000006
ALU Operation Results: Control Output: 2, MUX_OUT_1: 00000005, MUX_OUT_3: 00000000000000000000000000000100, ALU_OUT_EX: 00000004
Values after 4-to-1 MUX: MUX_OUT_1: 00000005, MUX_OUT_2: 00000003
Immediate value and ALUSrc: IMM_EX: 00000004, ALUSrc_EX: 1
2-to-1 MUX Output: MUX_OUT_3: 00000004
ALU Operation Results: Control Output: 2, MUX_OUT_1: 00000005, MUX_OUT_3: 00000000000000000000000000000100, ALU_OUT_EX: 00000009
Values after 4-to-1 MUX: MUX_OUT_1: 00000005, MUX_OUT_2: 00000003
Immediate value and ALUSrc: IMM_EX: 00000008, ALUSrc_EX: 1
2-to-1 MUX Output: MUX_OUT_3: 00000008
Initial Values: REG_DATA1_EX: 00000000, REG_DATA2_EX: 00000008, ALU_DATA_WB: 00000003, ALU_OUT_MEM: 00000009
ALU Operation Results: Control Output: 2, MUX_OUT_1: 00000005, MUX_OUT_3: 00000000000000000000000000001000, ALU_OUT_EX: 00000009
Values after 4-to-1 MUX: MUX_OUT_1: 00000000, MUX_OUT_2: 00000009
Immediate value and ALUSrc: IMM_EX: 00000008, ALUSrc_EX: 1
2-to-1 MUX Output: MUX_OUT_3: 00000008
ALU Operation Results: Control Output: 2, MUX_OUT_1: 00000000, MUX_OUT_3: 00000000000000000000000000001000, ALU_OUT_EX: 0000000d
ALU Operation Results: Control Output: 2, MUX_OUT_1: 00000000, MUX_OUT_3: 00000000000000000000000000001000, ALU_OUT_EX: 00000008
Values after 4-to-1 MUX: MUX_OUT_1: 00000000, MUX_OUT_2: 00000008
Immediate value and ALUSrc: IMM_EX: 00000008, ALUSrc_EX: 1
2-to-1 MUX Output: MUX_OUT_3: 00000008
Values after 4-to-1 MUX: MUX_OUT_1: 00000000, MUX_OUT_2: 00000008
Immediate value and ALUSrc: IMM_EX: 0000005c, ALUSrc_EX: 0
2-to-1 MUX Output: MUX_OUT_3: 00000008
Initial Values: REG_DATA1_EX: 00000012, REG_DATA2_EX: 00000000, ALU_DATA_WB: 00000009, ALU_OUT_MEM: 00000008
Values after 4-to-1 MUX: MUX_OUT_1: 00000012, MUX_OUT_2: 00000000
Immediate value and ALUSrc: IMM_EX: 0000005c, ALUSrc_EX: 0
2-to-1 MUX Output: MUX_OUT_3: 00000000
ALU Operation Results: Control Output: 6, MUX_OUT_1: 00000012, MUX_OUT_3: 00000000000000000000000000000000, ALU_OUT_EX: 00000008
ALU Operation Results: Control Output: 6, MUX_OUT_1: 00000012, MUX_OUT_3: 00000000000000000000000000000000, ALU_OUT_EX: 00000012
Values after 4-to-1 MUX: MUX_OUT_1: 00000012, MUX_OUT_2: 00000000
Immediate value and ALUSrc: IMM_EX: xxxxxxxx, ALUSrc_EX: 0
2-to-1 MUX Output: MUX_OUT_3: 00000000
Initial Values: REG_DATA1_EX: xxxxxxxx, REG_DATA2_EX: xxxxxxxx, ALU_DATA_WB: 00000003, ALU_OUT_MEM: 00000012
Values after 4-to-1 MUX: MUX_OUT_1: xxxxxxxx, MUX_OUT_2: xxxxxxxx
Immediate value and ALUSrc: IMM_EX: xxxxxxxx, ALUSrc_EX: 0
2-to-1 MUX Output: MUX_OUT_3: xxxxxxxx
ALU Operation Results: Control Output: 2, MUX_OUT_1: xxxxxxxx, MUX_OUT_3: xxxxxxxxxxxxxxxxxxxxxxxxxxxxxxxx, ALU_OUT_EX: 00000012
ALU Operation Results: Control Output: 2, MUX_OUT_1: xxxxxxxx, MUX_OUT_3: xxxxxxxxxxxxxxxxxxxxxxxxxxxxxxxx, ALU_OUT_EX: xxxxxxxx
Initial Values: REG_DATA1_EX: xxxxxxxx, REG_DATA2_EX: xxxxxxxx, ALU_DATA_WB: 00000012, ALU_OUT_MEM: xxxxxxxx
Initial Values: REG_DATA1_EX: xxxxxxxx, REG_DATA2_EX: xxxxxxxx, ALU_DATA_WB: xxxxxxxx, ALU_OUT_MEM: xxxxxxxx
$finish called at time : 210 ns : File "C:/Users/Popi/Desktop/Lucrare3/IF_ID/IF_ID.srcs/sim_1/new/test_riscv.v" Line 31
Values after 4-to-1 MUX: MUX_OUT_1: xxxxxxxx, MUX_OUT_2: xxxxxxxx
Immediate value and ALUSrc: IMM_EX: 00000000, ALUSrc_EX: 0
2-to-1 MUX Output: MUX_OUT_3: xxxxxxxx
Initial Values: REG_DATA1_EX: 00000000, REG_DATA2_EX: 00000000, ALU_DATA_WB: 00000000, ALU_OUT_MEM: 00000000
ALU Operation Results: Control Output: 2, MUX_OUT_1: xxxxxxxx, MUX_OUT_3: xxxxxxxxxxxxxxxxxxxxxxxxxxxxxxxx, ALU_OUT_EX: xxxxxxxx
Values after 4-to-1 MUX: MUX_OUT_1: 00000000, MUX_OUT_2: 00000000
Immediate value and ALUSrc: IMM_EX: 00000000, ALUSrc_EX: 0
2-to-1 MUX Output: MUX_OUT_3: 00000000
ALU Operation Results: Control Output: 2, MUX_OUT_1: 00000000, MUX_OUT_3: 00000000000000000000000000000000, ALU_OUT_EX: xxxxxxxx
ALU Operation Results: Control Output: 2, MUX_OUT_1: 00000000, MUX_OUT_3: 00000000000000000000000000000000, ALU_OUT_EX: 00000000
Initial Values: REG_DATA1_EX: 00000001, REG_DATA2_EX: 00000000, ALU_DATA_WB: 00000000, ALU_OUT_MEM: 00000000
Values after 4-to-1 MUX: MUX_OUT_1: 00000001, MUX_OUT_2: 00000000
Immediate value and ALUSrc: IMM_EX: 00000000, ALUSrc_EX: 0
2-to-1 MUX Output: MUX_OUT_3: 00000000
ALU Operation Results: Control Output: 2, MUX_OUT_1: 00000001, MUX_OUT_3: 00000000000000000000000000000000, ALU_OUT_EX: 00000000
ALU Operation Results: Control Output: 2, MUX_OUT_1: 00000001, MUX_OUT_3: 00000000000000000000000000000000, ALU_OUT_EX: 00000001
Values after 4-to-1 MUX: MUX_OUT_1: 00000001, MUX_OUT_2: 00000000
Immediate value and ALUSrc: IMM_EX: 00000001, ALUSrc_EX: 1
2-to-1 MUX Output: MUX_OUT_3: 00000001
Initial Values: REG_DATA1_EX: 00000001, REG_DATA2_EX: 00000001, ALU_DATA_WB: 00000000, ALU_OUT_MEM: 00000001
ALU Operation Results: Control Output: 2, MUX_OUT_1: 00000001, MUX_OUT_3: 00000000000000000000000000000001, ALU_OUT_EX: 00000001
Values after 4-to-1 MUX: MUX_OUT_1: 00000001, MUX_OUT_2: 00000001
Immediate value and ALUSrc: IMM_EX: 00000001, ALUSrc_EX: 1
2-to-1 MUX Output: MUX_OUT_3: 00000001
ALU Operation Results: Control Output: 2, MUX_OUT_1: 00000001, MUX_OUT_3: 00000000000000000000000000000001, ALU_OUT_EX: 00000002
Values after 4-to-1 MUX: MUX_OUT_1: 00000001, MUX_OUT_2: 00000001
Immediate value and ALUSrc: IMM_EX: 00000000, ALUSrc_EX: 0
2-to-1 MUX Output: MUX_OUT_3: 00000001
Initial Values: REG_DATA1_EX: 00000001, REG_DATA2_EX: 00000002, ALU_DATA_WB: 00000001, ALU_OUT_MEM: 00000002
Values after 4-to-1 MUX: MUX_OUT_1: 00000001, MUX_OUT_2: 00000002
Immediate value and ALUSrc: IMM_EX: 00000000, ALUSrc_EX: 0
2-to-1 MUX Output: MUX_OUT_3: 00000002
ALU Operation Results: Control Output: 0, MUX_OUT_1: 00000001, MUX_OUT_3: 00000000000000000000000000000010, ALU_OUT_EX: 00000002
ALU Operation Results: Control Output: 0, MUX_OUT_1: 00000002, MUX_OUT_3: 00000000000000000000000000000001, ALU_OUT_EX: 00000000
Values after 4-to-1 MUX: MUX_OUT_1: 00000002, MUX_OUT_2: 00000001
Immediate value and ALUSrc: IMM_EX: 00000000, ALUSrc_EX: 0
2-to-1 MUX Output: MUX_OUT_3: 00000001
Values after 4-to-1 MUX: MUX_OUT_1: 00000002, MUX_OUT_2: 00000001
Immediate value and ALUSrc: IMM_EX: 00000001, ALUSrc_EX: 1
2-to-1 MUX Output: MUX_OUT_3: 00000001
Initial Values: REG_DATA1_EX: 00000001, REG_DATA2_EX: 00000001, ALU_DATA_WB: 00000002, ALU_OUT_MEM: 00000000
Values after 4-to-1 MUX: MUX_OUT_1: 00000000, MUX_OUT_2: 00000002
Immediate value and ALUSrc: IMM_EX: 00000001, ALUSrc_EX: 1
2-to-1 MUX Output: MUX_OUT_3: 00000001
ALU Operation Results: Control Output: 1, MUX_OUT_1: 00000000, MUX_OUT_3: 00000000000000000000000000000001, ALU_OUT_EX: 00000000
ALU Operation Results: Control Output: 1, MUX_OUT_1: 00000002, MUX_OUT_3: 00000000000000000000000000000001, ALU_OUT_EX: 00000001
Values after 4-to-1 MUX: MUX_OUT_1: 00000002, MUX_OUT_2: 00000001
Immediate value and ALUSrc: IMM_EX: 00000001, ALUSrc_EX: 1
2-to-1 MUX Output: MUX_OUT_3: 00000001
ALU Operation Results: Control Output: 1, MUX_OUT_1: 00000002, MUX_OUT_3: 00000000000000000000000000000001, ALU_OUT_EX: 00000003
Values after 4-to-1 MUX: MUX_OUT_1: 00000002, MUX_OUT_2: 00000001
Immediate value and ALUSrc: IMM_EX: 00000004, ALUSrc_EX: 1
2-to-1 MUX Output: MUX_OUT_3: 00000004
Initial Values: REG_DATA1_EX: 00000005, REG_DATA2_EX: 00000004, ALU_DATA_WB: 00000000, ALU_OUT_MEM: 00000003
ALU Operation Results: Control Output: 1, MUX_OUT_1: 00000002, MUX_OUT_3: 00000000000000000000000000000100, ALU_OUT_EX: 00000003
Values after 4-to-1 MUX: MUX_OUT_1: 00000000, MUX_OUT_2: 00000004
Immediate value and ALUSrc: IMM_EX: 00000004, ALUSrc_EX: 1
2-to-1 MUX Output: MUX_OUT_3: 00000004
ALU Operation Results: Control Output: 2, MUX_OUT_1: 00000000, MUX_OUT_